{
  "SEERS_RING_I": [ "SEERS_RING" ],
  "ARCHERS_RING_I": [ "ARCHERS_RING" ],
  "WARRIOR_RING_I": [ "WARRIOR_RING" ],
  "BERSERKER_RING_I": [ "BERSERKER_RING" ],
  "BLACK_MASK_10_I": [ "BLACK_MASK_10" ],
  "BLACK_MASK_9_I": [ "BLACK_MASK_9" ],
  "BLACK_MASK_8_I": [ "BLACK_MASK_8" ],
  "BLACK_MASK_7_I": [ "BLACK_MASK_7" ],
  "BLACK_MASK_6_I": [ "BLACK_MASK_6" ],
  "BLACK_MASK_5_I": [ "BLACK_MASK_5" ],
  "BLACK_MASK_4_I": [ "BLACK_MASK_4" ],
  "BLACK_MASK_3_I": [ "BLACK_MASK_3" ],
  "BLACK_MASK_2_I": [ "BLACK_MASK_2" ],
  "BLACK_MASK_1_I": [ "BLACK_MASK_1" ],
  "BLACK_MASK_I": [ "BLACK_MASK" ],
  "TRIDENT_OF_THE_SEAS": [ "UNCHARGED_TRIDENT" ],
  "ABYSSAL_TENTACLE": [ "ABYSSAL_WHIP", "KRAKEN_TENTACLE" ],
  "DRAGON_CHAINBODY_G": [ "DRAGON_CHAINBODY", "DRAGON_CHAINBODY_ORNAMENT_KIT" ],
  "DRAGON_PLATELEGS_G": [ "DRAGON_PLATELEGS", "DRAGON_LEGS_SKIRT_ORNAMENT_KIT" ],
  "DRAGON_PLATESKIRT_G": [ "DRAGON_PLATESKIRT", "DRAGON_LEGS_SKIRT_ORNAMENT_KIT" ],
  "DRAGON_FULL_HELM_G": [ "DRAGON_FULL_HELM", "DRAGON_FULL_HELM_ORNAMENT_KIT" ],
  "DRAGON_SQ_SHIELD_G": [ "DRAGON_SQ_SHIELD", "DRAGON_SQ_SHIELD_ORNAMENT_KIT" ],
  "LIGHT_INFINITY_HAT": [ "INFINITY_HAT", "LIGHT_INFINITY_COLOUR_KIT" ],
  "LIGHT_INFINITY_TOP": [ "INFINITY_TOP", "LIGHT_INFINITY_COLOUR_KIT" ],
  "LIGHT_INFINITY_BOTTOMS": [ "INFINITY_BOTTOMS", "LIGHT_INFINITY_COLOUR_KIT" ],
  "AMULET_OF_FURY_OR": [ "AMULET_OF_FURY", "FURY_ORNAMENT_KIT" ],
  "DARK_INFINITY_HAT": [ "INFINITY_HAT", "DARK_INFINITY_COLOUR_KIT" ],
  "DARK_INFINITY_TOP": [ "INFINITY_TOP", "DARK_INFINITY_COLOUR_KIT" ],
  "DARK_INFINITY_BOTTOMS": [ "INFINITY_BOTTOMS", "DARK_INFINITY_COLOUR_KIT" ],
  "TYRANNICAL_RING_I": [ "TYRANNICAL_RING" ],
  "TREASONOUS_RING_I": [ "TREASONOUS_RING" ],
  "VOLCANIC_ABYSSAL_WHIP": [ "ABYSSAL_WHIP", "VOLCANIC_WHIP_MIX" ],
  "FROZEN_ABYSSAL_WHIP": [ "ABYSSAL_WHIP", "FROZEN_WHIP_MIX" ],
  "DRAGON_PICKAXE_12797": [ "DRAGON_PICKAXE", "DRAGON_PICKAXE_UPGRADE_KIT" ],
  "MALEDICTION_WARD_12806": [ "MALEDICTION_WARD", "WARD_UPGRADE_KIT" ],
  "ODIUM_WARD_12807": [ "ODIUM_WARD", "WARD_UPGRADE_KIT" ],
  "SARAS_BLESSED_SWORD_FULL": [ "SARADOMIN_SWORD", "SARADOMINS_TEAR" ],
  "SARADOMINS_BLESSED_SWORD": [ "SARADOMIN_SWORD", "SARADOMINS_TEAR" ],
  "GRANITE_MAUL_12848": [ "GRANITE_MAUL", "GRANITE_CLAMP" ],
  "TRIDENT_OF_THE_SWAMP": [ "UNCHARGED_TOXIC_TRIDENT" ],
  "TOXIC_STAFF_OF_THE_DEAD": [ "TOXIC_STAFF_UNCHARGED" ],
  "TOXIC_BLOWPIPE": [ "TOXIC_BLOWPIPE_EMPTY" ],
  "SERPENTINE_HELM": [ "SERPENTINE_HELM_UNCHARGED" ],
  "TANZANITE_HELM_UNCHARGED": [ "SERPENTINE_HELM_UNCHARGED" ],
  "TANZANITE_HELM": [ "SERPENTINE_HELM_UNCHARGED" ],
  "MAGMA_HELM_UNCHARGED": [ "SERPENTINE_HELM_UNCHARGED" ],
  "MAGMA_HELM": [ "SERPENTINE_HELM_UNCHARGED" ],
  "RING_OF_THE_GODS_I": [ "RING_OF_THE_GODS" ],
  "RING_OF_SUFFERING_I": [ "RING_OF_SUFFERING" ],
  "OCCULT_NECKLACE_OR": [ "OCCULT_NECKLACE", "OCCULT_ORNAMENT_KIT" ],
  "DRAGON_DEFENDER_T": [ "DRAGON_DEFENDER", "DRAGON_DEFENDER_ORNAMENT_KIT" ],
  "DRAGON_SCIMITAR_OR": [ "DRAGON_SCIMITAR", "DRAGON_SCIMITAR_ORNAMENT_KIT" ],
  "AMULET_OF_TORTURE_OR": [ "AMULET_OF_TORTURE", "TORTURE_ORNAMENT_KIT" ],
  "ARMADYL_GODSWORD_OR": [ "ARMADYL_GODSWORD", "ARMADYL_GODSWORD_ORNAMENT_KIT" ],
  "BANDOS_GODSWORD_OR": [ "BANDOS_GODSWORD", "BANDOS_GODSWORD_ORNAMENT_KIT" ],
  "SARADOMIN_GODSWORD_OR": [ "SARADOMIN_GODSWORD", "SARADOMIN_GODSWORD_ORNAMENT_KIT" ],
  "ZAMORAK_GODSWORD_OR": [ "ZAMORAK_GODSWORD", "ZAMORAK_GODSWORD_ORNAMENT_KIT" ],
  "RING_OF_SUFFERING_R": [ "RING_OF_SUFFERING" ],
  "RING_OF_SUFFERING_RI": [ "RING_OF_SUFFERING" ],
  "TOME_OF_FIRE": [ "TOME_OF_FIRE_EMPTY" ],
  "TRIDENT_OF_THE_SEAS_E": [ "UNCHARGED_TRIDENT_E" ],
  "TRIDENT_OF_THE_SWAMP_E": [ "UNCHARGED_TOXIC_TRIDENT_E" ],
  "DRAGON_BOOTS_G": [ "DRAGON_BOOTS", "DRAGON_BOOTS_ORNAMENT_KIT" ],
  "DRAGON_PLATEBODY_G": [ "DRAGON_PLATEBODY", "DRAGON_PLATEBODY_ORNAMENT_KIT" ],
  "DRAGON_KITESHIELD_G": [ "DRAGON_KITESHIELD", "DRAGON_KITESHIELD_ORNAMENT_KIT" ],
  "NECKLACE_OF_ANGUISH_OR": [ "NECKLACE_OF_ANGUISH", "ANGUISH_ORNAMENT_KIT" ],
  "SANGUINESTI_STAFF": [ "SANGUINESTI_STAFF_UNCHARGED" ],
  "HOLY_SANGUINESTI_STAFF": [ "HOLY_SANGUINESTI_STAFF_UNCHARGED" ],
  "SCYTHE_OF_VITUR": [ "SCYTHE_OF_VITUR_UNCHARGED" ],
  "HOLY_SCYTHE_OF_VITUR_UNCHARGED": [ "SCYTHE_OF_VITUR_UNCHARGED" ],
  "HOLY_SCYTHE_OF_VITUR": [ "SCYTHE_OF_VITUR_UNCHARGED" ],
  "SANGUINE_SCYTHE_OF_VITUR_UNCHARGED": [ "SCYTHE_OF_VITUR_UNCHARGED" ],
  "SANGUINE_SCYTHE_OF_VITUR": [ "SCYTHE_OF_VITUR_UNCHARGED" ],
  "HOLY_GHRAZI_RAPIER": [ "GHRAZI_RAPIER" ],
  "VIGGORAS_CHAINMACE": [ "VIGGORAS_CHAINMACE_U" ],
  "CRAWS_BOW": [ "CRAWS_BOW_U" ],
  "THAMMARONS_SCEPTRE": [ "THAMMARONS_SCEPTRE_U" ],
  "RUNE_DEFENDER_T": [ "RUNE_DEFENDER", "RUNE_DEFENDER_ORNAMENT_KIT" ],
  "TZHAAR_KET_OM_T": [ "TZHAAR_KET_OM", "TZHAAR_KET_OM_ORNAMENT_KIT" ],
  "BERSERKER_NECKLACE_OR": [ "BERSERKER_NECKLACE", "BERSERKER_NECKLACE_ORNAMENT_KIT" ],
  "RUNE_SCIMITAR_23330": [ "RUNE_SCIMITAR", "RUNE_SCIMITAR_ORNAMENT_KIT_GUTHIX" ],
  "RUNE_SCIMITAR_23332": [ "RUNE_SCIMITAR", "RUNE_SCIMITAR_ORNAMENT_KIT_SARADOMIN" ],
  "RUNE_SCIMITAR_23334": [ "RUNE_SCIMITAR", "RUNE_SCIMITAR_ORNAMENT_KIT_ZAMORAK" ],
  "TORMENTED_BRACELET_OR": [ "TORMENTED_BRACELET", "TORMENTED_ORNAMENT_KIT" ],
  "DRAGON_PICKAXE_OR": [ "DRAGON_PICKAXE", "ZALCANO_SHARD" ],
  "NEITIZNOT_FACEGUARD": [ "HELM_OF_NEITIZNOT", "BASILISK_JAW" ],
  "FEROCIOUS_GLOVES": [ "HYDRA_LEATHER" ],
  "CRYSTAL_BOW": [ "CRYSTAL_WEAPON_SEED" ],
  "CRYSTAL_BOW_INACTIVE": [ "CRYSTAL_WEAPON_SEED" ],
  "CRYSTAL_SHIELD": [ "CRYSTAL_WEAPON_SEED" ],
  "CRYSTAL_SHIELD_INACTIVE": [ "CRYSTAL_WEAPON_SEED" ],
  "CRYSTAL_HALBERD": [ "CRYSTAL_WEAPON_SEED" ],
  "CRYSTAL_HALBERD_INACTIVE": [ "CRYSTAL_WEAPON_SEED" ],
  "BLADE_OF_SAELDOR": [ "BLADE_OF_SAELDOR_INACTIVE" ],
  "BLADE_OF_SAELDOR_C": [ "BLADE_OF_SAELDOR_INACTIVE" ],
  "BLADE_OF_SAELDOR_C_24553": [ "BLADE_OF_SAELDOR_INACTIVE" ],
  "BLADE_OF_SAELDOR_C_25870": [ "BLADE_OF_SAELDOR_INACTIVE" ],
  "BLADE_OF_SAELDOR_C_25872": [ "BLADE_OF_SAELDOR_INACTIVE" ],
  "BLADE_OF_SAELDOR_C_25874": [ "BLADE_OF_SAELDOR_INACTIVE" ],
  "BLADE_OF_SAELDOR_C_25876": [ "BLADE_OF_SAELDOR_INACTIVE" ],
  "BLADE_OF_SAELDOR_C_25878": [ "BLADE_OF_SAELDOR_INACTIVE" ],
  "BLADE_OF_SAELDOR_C_25880": [ "BLADE_OF_SAELDOR_INACTIVE" ],
  "BLADE_OF_SAELDOR_C_25882": [ "BLADE_OF_SAELDOR_INACTIVE" ],
  "BOW_OF_FAERDHINEN": [ "BOW_OF_FAERDHINEN_INACTIVE" ],
  "BOW_OF_FAERDHINEN_C": [ "BOW_OF_FAERDHINEN_INACTIVE" ],
  "BOW_OF_FAERDHINEN_C_25869": [ "BOW_OF_FAERDHINEN_INACTIVE" ],
  "BOW_OF_FAERDHINEN_C_25884": [ "BOW_OF_FAERDHINEN_INACTIVE" ],
  "BOW_OF_FAERDHINEN_C_25886": [ "BOW_OF_FAERDHINEN_INACTIVE" ],
  "BOW_OF_FAERDHINEN_C_25888": [ "BOW_OF_FAERDHINEN_INACTIVE" ],
  "BOW_OF_FAERDHINEN_C_25890": [ "BOW_OF_FAERDHINEN_INACTIVE" ],
  "BOW_OF_FAERDHINEN_C_25892": [ "BOW_OF_FAERDHINEN_INACTIVE" ],
  "BOW_OF_FAERDHINEN_C_25894": [ "BOW_OF_FAERDHINEN_INACTIVE" ],
  "BOW_OF_FAERDHINEN_C_25896": [ "BOW_OF_FAERDHINEN_INACTIVE" ],
  "CRYSTAL_HELM": [ "CRYSTAL_ARMOUR_SEED" ],
  "CRYSTAL_HELM_INACTIVE": [ "CRYSTAL_ARMOUR_SEED" ],
  "CRYSTAL_BODY": [ "CRYSTAL_ARMOUR_SEED" ],
  "CRYSTAL_BODY_INACTIVE": [ "CRYSTAL_ARMOUR_SEED" ],
  "CRYSTAL_LEGS": [ "CRYSTAL_ARMOUR_SEED" ],
  "CRYSTAL_LEGS_INACTIVE": [ "CRYSTAL_ARMOUR_SEED" ],
  "TWISTED_ANCESTRAL_HAT": [ "ANCESTRAL_HAT", "TWISTED_ANCESTRAL_COLOUR_KIT" ],
  "TWISTED_ANCESTRAL_ROBE_TOP": [ "ANCESTRAL_ROBE_TOP", "TWISTED_ANCESTRAL_COLOUR_KIT" ],
  "TWISTED_ANCESTRAL_ROBE_BOTTOM": [ "ANCESTRAL_ROBE_BOTTOM", "TWISTED_ANCESTRAL_COLOUR_KIT" ],
  "HARMONISED_NIGHTMARE_STAFF": [ "NIGHTMARE_STAFF", "HARMONISED_ORB" ],
  "VOLATILE_NIGHTMARE_STAFF": [ "NIGHTMARE_STAFF", "VOLATILE_ORB" ],
  "ELDRITCH_NIGHTMARE_STAFF": [ "NIGHTMARE_STAFF", "ELDRITCH_ORB" ],
  "DARK_BOW_12765": [ "DARK_BOW", "GREEN_DARK_BOW_PAINT" ],
  "DARK_BOW_12766": [ "DARK_BOW", "BLUE_DARK_BOW_PAINT" ],
  "DARK_BOW_12767": [ "DARK_BOW", "YELLOW_DARK_BOW_PAINT" ],
  "DARK_BOW_12768": [ "DARK_BOW", "WHITE_DARK_BOW_PAINT" ],
  "LAVA_BATTLESTAFF_21198": [ "LAVA_BATTLESTAFF", "LAVA_STAFF_UPGRADE_KIT" ],
  "MYSTIC_LAVA_STAFF_21200": [ "MYSTIC_LAVA_STAFF", "LAVA_STAFF_UPGRADE_KIT" ],
  "STEAM_BATTLESTAFF_12795": [ "STEAM_BATTLESTAFF", "STEAM_STAFF_UPGRADE_KIT" ],
  "MYSTIC_STEAM_STAFF_12796": [ "MYSTIC_STEAM_STAFF", "STEAM_STAFF_UPGRADE_KIT" ],
  "VESTAS_BLIGHTED_LONGSWORD": [ "VESTAS_LONGSWORD_INACTIVE" ],
  "AMULET_OF_BLOOD_FURY": [ "AMULET_OF_FURY", "BLOOD_SHARD" ],

  "VESTAS_LONGSWORD_CHARGED_32254": [ "VESTAS_LONGSWORD" ],
  "STATIUSS_WARHAMMER_CHARGED_32255": [ "STATIUSS_WARHAMMER" ],
  "VESTAS_SPEAR_CHARGED_32256": [ "VESTAS_SPEAR" ],
  "ZURIELS_STAFF_CHARGED_32257": [ "ZURIELS_STAFF" ],
  "ABYSSAL_TENTACLE_OR_60047": [ "ABYSSAL_WHIP", "KRAKEN_TENTACLE" ],
  "KRAKEN_TENTACLE_OR_60048": [ "KRAKEN_TENTACLE", "KRAKEN_ORNAMENT_KIT_60059" ],
  "ARMADYL_CROSSBOW_OR_60049": [ "ARMADYL_CROSSBOW", "ACB_ORNAMENT_KIT_60060" ],
  "MASTER_WAND_OR_60050": [ "MASTER_WAND", "MTA_ORNAMENT_KIT_60061" ],
  "MAGES_BOOK_OR_60051": [ "MAGES_BOOK", "MTA_ORNAMENT_KIT_60061" ]
}
