{
  "name": "Tournament Rewards",
  "variableCurrency": "tournament points",
  "sections": [ { "items": [
    { "id": "ItemId.COINS", "stack": 250000, "price": 1 },
    { "id": "ItemId.RANDOM_INFINITY_ROBE_60066", "price": 10 },
    { "id": "ItemId.DHAROKS_ARMOUR_SET", "price": 15 },
    { "id": "ItemId.GUTHANS_ARMOUR_SET", "price": 15 },
    { "id": "ItemId.VERACS_ARMOUR_SET", "price": 15 },
    { "id": "ItemId.TORAGS_ARMOUR_SET", "price": 15 },
    { "id": "ItemId.KARILS_ARMOUR_SET", "price": 15 },
    { "id": "ItemId.AHRIMS_ARMOUR_SET", "price": 15 },
    { "id": "ItemId._3RD_AGE_BOX_32340", "price": 75 },
    { "id": "ItemId.VESTAS_LONGSWORD_INACTIVE", "price": 150 },
    { "id": "ItemId.TWISTED_HORNS", "price": 50 },
    { "id": "ItemId.ECUMENICAL_KEY", "price": 5 },
    { "id": "ItemId.CRYSTAL_KEY", "price": 2 },
    { "id": "ItemId.SCROLL_BOX_EASY_60004", "price": 1 },
    { "id": "ItemId.SCROLL_BOX_MEDIUM_60005", "price": 1 },
    { "id": "ItemId.SCROLL_BOX_HARD_60006", "price": 2 },
    { "id": "ItemId.SCROLL_BOX_ELITE_60007", "price": 4 },
    { "id": "ItemId.ANCIENT_SHARD", "price": 2 },
    { "id": "ItemId.SWIFT_BLADE", "price": 35 },
    { "id": "ItemId.GUTHIXIAN_ICON", "price": 25 },
    { "id": "ItemId.ARMADYL_HALO", "price": 20 },
    { "id": "ItemId.BANDOS_HALO", "price": 20 },
    { "id": "ItemId.SEREN_HALO", "price": 20 },
    { "id": "ItemId.ANCIENT_HALO", "price": 20 },
    { "id": "ItemId.BRASSICA_HALO", "price": 20 },
    { "id": "ItemId.SARADOMIN_HALO", "price": 20 },
    { "id": "ItemId.ZAMORAK_HALO", "price": 20 },
    { "id": "ItemId.GUTHIX_HALO", "price": 20 },
    { "id": "ItemId.DECORATIVE_ARMOUR_11898", "price": 5 },
    { "id": "ItemId.DECORATIVE_ARMOUR_11896", "price": 10 },
    { "id": "ItemId.DECORATIVE_ARMOUR_11897", "price": 8 },
    { "id": "ItemId.DECORATIVE_ARMOUR_11899", "price": 10 },
    { "id": "ItemId.DECORATIVE_ARMOUR_11900", "price": 8 },
    { "id": "ItemId.DECORATIVE_ARMOUR_11901", "price": 10 },
    { "id": "ItemId.DECORATIVE_FULL_HELM", "price": 1 },
    { "id": "ItemId.DECORATIVE_HELM", "price": 1 },
    { "id": "ItemId.DECORATIVE_ARMOUR", "price": 2 },
    { "id": "ItemId.DECORATIVE_ARMOUR_4070", "price": 1 },
    { "id": "ItemId.DECORATIVE_ARMOUR_11893", "price": 1 },
    { "id": "ItemId.DECORATIVE_SHIELD", "price": 1 },
    { "id": "ItemId.DECORATIVE_BOOTS", "price": 1 },
    { "id": "ItemId.DECORATIVE_FULL_HELM_25169", "price": 12 },
    { "id": "ItemId.DECORATIVE_HELM_4506", "price": 10 },
    { "id": "ItemId.DECORATIVE_ARMOUR_4504", "price": 20 },
    { "id": "ItemId.DECORATIVE_ARMOUR_4505", "price": 15 },
    { "id": "ItemId.DECORATIVE_ARMOUR_11894", "price": 15 },
    { "id": "ItemId.DECORATIVE_SHIELD_4507", "price": 15 },
    { "id": "ItemId.DECORATIVE_BOOTS_25167", "price": 10 },
    { "id": "ItemId.DECORATIVE_FULL_HELM_25174", "price": 60 },
    { "id": "ItemId.DECORATIVE_HELM_4511", "price": 50 },
    { "id": "ItemId.DECORATIVE_ARMOUR_4509", "price": 100 },
    { "id": "ItemId.DECORATIVE_ARMOUR_4510", "price": 70 },
    { "id": "ItemId.DECORATIVE_ARMOUR_11895", "price": 70 },
    { "id": "ItemId.DECORATIVE_SHIELD_4512", "price": 70 },
    { "id": "ItemId.DECORATIVE_BOOTS_25171", "price": 50 },
    { "id": "ItemId.MAGIC_SHORTBOW_I", "price": 5 },
    { "id": "ItemId.CRYSTAL_WEAPON_SEED", "price": 12 },
    { "id": "ItemId.SARADOMINS_TEAR", "price": 25 },
    { "id": "ItemId.RUNE_POUCH", "price": 2 },
    { "id": "ItemId.BOLT_RACK", "stack": 200, "price": 1 },
    { "id": "ItemId.ADAMANT_ARROW", "stack": 350, "price": 1 },
    { "id": "ItemId.RUNE_ARROW", "stack": 300, "price": 3 },
    { "id": "ItemId.DRAGONSTONE_BOLTS_E", "stack": 20, "price": 3 },
    { "id": "ItemId.BLIGHTED_TELEPORT_SPELL_SACK", "stack": 10, "price": 2 }
  ] } ]
}
