{
  "name": "Monkey Madness Shop",
  "sellExchangeMultiplier": 1.0,
  "sections": [ { "items": [
    { "id": "ItemId.ROYAL_SEED_POD", "price": 250000 },
    { "id": "ItemId.DRAGON_SCIMITAR", "price": 100000 },
    { "id": "ItemId.ANCIENT_MACE", "price": 20000 },
    { "id": "ItemId.BARRELCHEST_ANCHOR", "price": 290000 },
    { "id": "ItemId.MAGIC_SHORTBOW", "price": 10000 },
    { "id": "ItemId.AMETHYST_ARROW", "price": 700 },
    { "id": "ItemId.AMETHYST_ARROW_P_PLUS_PLUS", "price": 4500 },
    { "id": "ItemId.OPAL_BOLTS_E", "price": 30 },
    { "id": "ItemId.RUBY_BOLTS_E", "price": 600 },
    { "id": "ItemId.DIAMOND_BOLTS_E", "price": 1500 },
    { "id": "ItemId.RED_DHIDE_BODY" },
    { "id": "ItemId.RED_DHIDE_CHAPS" },
    { "id": "ItemId.RED_DHIDE_VAMB" },
    { "id": "ItemId.ANCIENT_STAFF", "price": 80000 },
    { "id": "ItemId.BLOOD_RUNE", "price": 500 }
  ] } ]
}
