{
  "name": "Lost City Shop",
  "sellExchangeMultiplier": 1.0,
  "sections": [ { "items": [
    { "id": "ItemId.DRAGON_LONGSWORD", "price": 100000 },
    { "id": "ItemId.DRAGON_DAGGER_P_PLUS_PLUS", "price": 30000 },
    { "id": "ItemId.DRAGON_BATTLEAXE", "price": 200000 },
    { "id": "ItemId.DRAGON_MACE", "price": 50000 },
    { "id": "ItemId.HUNTERS_CROSSBOW", "price": 10000 },
    { "id": "ItemId.LONG_KEBBIT_BOLTS", "price": 1000 },
    { "id": "ItemId.BLUE_DHIDE_BODY" },
    { "id": "ItemId.BLUE_DHIDE_CHAPS" },
    { "id": "ItemId.BLUE_DHIDE_VAMB" }
  ] } ]
}
